{
  "call_logs": [
    {
      "answer_start_time": "2021-10-12T16:00:08.0000000\u002B00:00",
      "call_end_time": "2021-10-08T16:12:04Z",
      "call_id": "7018210229361148737",
      "call_type": "voip",
      "callee_country_code": "1",
      "callee_country_iso_code": "US",
      "callee_did_number": "\u002B12055432724",
      "callee_name": "Callee name",
      "callee_number": "1001",
      "callee_number_type": 1,
      "callee_number_source": "internal",
      "caller_country_code": "1",
      "caller_country_iso_code": "US",
      "caller_did_number": "\u002B12055432724",
      "caller_name": "Caller name",
      "caller_number": "\u002B12059300920",
      "caller_number_type": 1,
      "caller_number_source": "internal",
      "caller_billing_reference_id": "ZoomTelecom123456",
      "charge": "$0.0255",
      "client_code": "123",
      "date_time": "2021-10-08T16:23:34Z",
      "device_private_ip": "12",
      "device_public_ip": "23",
      "direction": "inbound",
      "duration": 25,
      "id": "48c1dfd4-91ce-4df5-8495-7c9e33d10869",
      "owner": {
        "extension_number": 1000001019,
        "id": "N3hAhug-QVyFPYZJrHpRaQ",
        "name": "123@test.com",
        "type": "user"
      },
      "path": "pstn",
      "rate": "0.0255",
      "recording_id": "c71b360f6e774e3aa101453117b7e1a7",
      "recording_type": "OnDemand",
      "result": "Call connected",
      "site": {
        "id": "8f71O6rWT8KFUGQmJIFAdQ",
        "name": "Main Site"
      },
      "user_id": "IqoQmDRqS-aIoXqV_FZ88w",
      "hold_time": 5,
      "waiting_time": 5,
      "department": "web-api1",
      "cost_center": "cost-center1"
    }
  ],
  "from": "2021-10-01",
  "next_page_token": "AmhfoKtF2Ey4TaPg2iZsAcmetRLs2ZY0Sk2",
  "page_count": 2,
  "page_size": 30,
  "to": "2021-10-12",
  "total_records": 54
}