{
  "call_logs": [
    {
      "id": "20211001-48c1dfd4-91ce-4df5-8495-7c9e33d10869",
      "call_id": "7018317023722949162",
      "direction": "inbound",
      "international": false,
      "start_time": "2021-10-08T16:12:04Z",
      "answer_time": "2021-10-08T16:12:10Z",
      "end_time": "2021-10-08T16:12:15Z",
      "duration": 20,
      "connect_type": "internal",
      "sbc_id": "20",
      "sbc_name": "20",
      "sip_group_id": "20",
      "sip_group_name": "20",
      "call_type": "general",
      "call_result": "answered",
      "hide_caller_id": true,
      "end_to_end": false,
      "caller_ext_id": "ATu63--9TjudZetpf4UuQg",
      "caller_did_number": "\u002B12059300920",
      "caller_ext_number": "101229",
      "caller_name": "Caller name",
      "caller_email": "test@abc.com",
      "caller_ext_type": "user",
      "caller_number_type": "external_pstn",
      "caller_device_type": "MAC_Client(6.0.2.33403)",
      "caller_country_iso_code": "US",
      "caller_country_code": "US",
      "callee_ext_id": "ATu63--9TjudZetpf4UuQg",
      "callee_did_number": "\u002B12059300920",
      "callee_ext_number": "101229",
      "callee_name": "Callee name",
      "callee_email": "test@abc.com",
      "callee_ext_type": "user",
      "callee_number_type": "external_pstn",
      "callee_device_type": "MAC_Client(6.0.2.33403)",
      "callee_country_iso_code": "US",
      "callee_country_code": "US",
      "department": "web-api1",
      "cost_center": "cost-center1",
      "site_id": "BpCTBMRARBefUrprildVqw",
      "group_id": "California",
      "site_name": "site name",
      "spam": "Maybe Spam",
      "recording_status": "recorded",
      "caller_account_code": "111",
      "callee_account_code": "222"
    }
  ],
  "call_history": [
    {
      "call_history_uuid": "20211008-48c1dfd4-91ce-4df5-8495-7c9e33d10869",
      "call_id": "7018317023722949162",
      "direction": "inbound",
      "international": false,
      "start_time": "2021-10-08T16:12:04Z",
      "answer_time": "2021-10-08T16:12:10Z",
      "end_time": "2021-10-08T16:12:15Z",
      "duration": 20,
      "connect_type": "internal",
      "sbc_id": "20",
      "sbc_name": "20",
      "sip_group_id": "20",
      "sip_group_name": "20",
      "call_type": "general",
      "call_result": "answered",
      "hide_caller_id": true,
      "end_to_end": false,
      "caller_ext_id": "ATu63--9TjudZetpf4UuQg",
      "caller_did_number": "\u002B12059300920",
      "caller_ext_number": "101229",
      "caller_name": "Caller name",
      "caller_email": "test@abc.com",
      "caller_ext_type": "user",
      "caller_number_type": "external_pstn",
      "caller_device_type": "MAC_Client(6.0.2.33403)",
      "caller_country_iso_code": "US",
      "caller_country_code": "US",
      "callee_ext_id": "ATu63--9TjudZetpf4UuQg",
      "callee_did_number": "\u002B12059300920",
      "callee_ext_number": "101229",
      "callee_name": "Callee name",
      "callee_email": "test@abc.com",
      "callee_ext_type": "user",
      "callee_number_type": "external_pstn",
      "callee_device_type": "MAC_Client(6.0.2.33403)",
      "callee_country_iso_code": "US",
      "callee_country_code": "US",
      "department": "web-api1",
      "cost_center": "cost-center1",
      "site_id": "BpCTBMRARBefUrprildVqw",
      "group_id": "California",
      "site_name": "site name",
      "spam": "Maybe Spam",
      "recording_status": "recorded",
      "caller_account_code": "111",
      "callee_account_code": "222"
    }
  ],
  "from": "2021-10-01",
  "to": "2021-10-12",
  "page_count": 2,
  "page_size": 30,
  "total_records": 54,
  "next_page_token": "AmhfoKtF2Ey4TaPg2iZsAcmetRLs2ZY0Sk2"
}