{
  "call_logs": [
    {
      "id": "20231008-48c1dfd4-91ce-4df5-8495-7c9e33d10869",
      "call_path_id": "20231008-48c1dfd4-91ce-4df5-8495-7c9e33d10869",
      "call_id": "7018317023722949162",
      "group_id": "_sj190JDFasa19321_adA7",
      "connect_type": "internal",
      "call_type": "general",
      "direction": "inbound",
      "hide_caller_id": true,
      "end_to_end": false,
      "caller_ext_id": "ATu63--9TjudZetpf4UuQg",
      "caller_name": "Caller name",
      "caller_email": "test@abc.com",
      "caller_employee_id": "102911",
      "caller_did_number": "\u002B12059300920",
      "caller_ext_number": "101229",
      "caller_ext_type": "user",
      "caller_number_type": "external_pstn",
      "caller_device_private_ip": "10.0.0.1",
      "caller_device_public_ip": "135.0.0.1",
      "caller_device_type": "MAC_Client(6.0.2.33403)",
      "caller_country_iso_code": "US",
      "caller_country_code": "1",
      "caller_site_id": "BpCTBMRARBefUrprildVqw",
      "caller_department": "web-api1",
      "caller_cost_center": "cost-center1",
      "callee_ext_id": "ATu63--9TjudZetpf4UuQg",
      "callee_name": "Callee name",
      "callee_did_number": "\u002B12059300920",
      "callee_ext_number": "101229",
      "callee_email": "test@abc.com",
      "callee_employee_id": "102912",
      "callee_ext_type": "user",
      "callee_number_type": "external_pstn",
      "callee_device_private_ip": "10.0.0.2",
      "callee_device_public_ip": "135.0.0.2",
      "callee_device_type": "MAC_Client(6.0.2.33403)",
      "callee_country_iso_code": "US",
      "callee_country_code": "1",
      "callee_site_id": "BpCTBMRARBefUrprildVqw",
      "callee_department": "web-api1",
      "callee_cost_center": "cost-center1",
      "start_time": "2023-10-08T16:12:04Z",
      "answer_time": "2023-10-08T16:12:04Z",
      "end_time": "2023-10-08T16:12:15Z",
      "event": "outgoing",
      "result": "answered",
      "result_reason": "answered_by_other",
      "operator_ext_number": "3456",
      "operator_ext_id": "NN9rA4fZSsScB2YiCqw7Ig",
      "operator_ext_type": "user",
      "operator_name": "operator name",
      "recording_id": "c71b360f6e774e3aa101453117b7e1a7",
      "recording_type": "automatic",
      "voicemail_id": "6cd2da01bcaa47f58e3250a575c5f2bf",
      "talk_time": 31,
      "hold_time": 20,
      "wait_time": 20,
      "caller_account_code": "111",
      "callee_account_code": "222"
    }
  ],
  "call_elements": [
    {
      "call_element_id": "20231008-48c1dfd4-91ce-4df5-8495-7c9e33d10869",
      "call_history_uuid": "20231008-48c1dfd4-91ce-4df5-8495-7c9e33d10869",
      "call_id": "7018317023722949162",
      "group_id": "_sj190JDFasa19321_adA7",
      "connect_type": "internal",
      "call_type": "general",
      "direction": "inbound",
      "hide_caller_id": true,
      "end_to_end": false,
      "caller_ext_id": "ATu63--9TjudZetpf4UuQg",
      "caller_name": "Caller name",
      "caller_email": "test@abc.com",
      "caller_employee_id": "102911",
      "caller_did_number": "\u002B12059300920",
      "caller_ext_number": "101229",
      "caller_ext_type": "user",
      "caller_number_type": "external_pstn",
      "caller_device_private_ip": "10.0.0.1",
      "caller_device_public_ip": "135.0.0.1",
      "caller_device_type": "MAC_Client(6.0.2.33403)",
      "caller_country_iso_code": "US",
      "caller_country_code": "1",
      "caller_site_id": "BpCTBMRARBefUrprildVqw",
      "caller_department": "web-api1",
      "caller_cost_center": "cost-center1",
      "callee_ext_id": "ATu63--9TjudZetpf4UuQg",
      "callee_name": "Callee name",
      "callee_did_number": "\u002B12059300920",
      "callee_ext_number": "101229",
      "callee_email": "test@abc.com",
      "callee_employee_id": "102912",
      "callee_ext_type": "user",
      "callee_number_type": "external_pstn",
      "callee_device_private_ip": "10.0.0.2",
      "callee_device_public_ip": "135.0.0.2",
      "callee_device_type": "MAC_Client(6.0.2.33403)",
      "callee_country_iso_code": "US",
      "callee_country_code": "1",
      "callee_site_id": "BpCTBMRARBefUrprildVqw",
      "callee_department": "web-api1",
      "callee_cost_center": "cost-center1",
      "start_time": "2023-10-08T16:12:04Z",
      "answer_time": "2023-10-08T16:12:04Z",
      "end_time": "2023-10-08T16:12:15Z",
      "event": "outgoing",
      "result": "answered",
      "result_reason": "answered_by_other",
      "operator_ext_number": "3456",
      "operator_ext_id": "NN9rA4fZSsScB2YiCqw7Ig",
      "operator_ext_type": "user",
      "operator_name": "operator name",
      "recording_id": "c71b360f6e774e3aa101453117b7e1a7",
      "recording_type": "automatic",
      "voicemail_id": "6cd2da01bcaa47f58e3250a575c5f2bf",
      "talk_time": 31,
      "hold_time": 20,
      "wait_time": 20,
      "caller_account_code": "111",
      "callee_account_code": "222"
    }
  ],
  "from": "2023-10-01",
  "to": "2023-10-12",
  "next_page_token": "AmhfoKtF2Ey4TaPg2iZsAcmetRLs2ZY0Sk2",
  "page_count": 2,
  "page_size": 30,
  "total_records": 54
}