{
  "next_page_token": "8V8HigQkzm2O5r9RUn31D9ZyJHgrmFfbLa2",
  "page_count": 100,
  "page_number": 1,
  "page_size": 30,
  "total_records": 8482,
  "users": [
    {
      "user_created_at": "2019-06-01T07:58:03.0000000\u002B00:00",
      "created_at": "2018-10-31T04:32:37.0000000\u002B00:00",
      "custom_attributes": [
        {
          "key": "cbf_cywdkexrtqc73f97gd4w6g",
          "name": "A1",
          "value": "2323"
        }
      ],
      "dept": "Developers",
      "email": "jchill@example.com",
      "employee_unique_id": "HqDyI037Qjili1kNsSIrIg",
      "first_name": "Jill",
      "group_ids": [
        "t-_-d56CSWG-7BF15LLrOw"
      ],
      "division_ids": [
        "xxxxxxxxxx"
      ],
      "host_key": "299492849",
      "id": "KDcuGIm1QgePTO8WbOqwIQ",
      "im_group_ids": [
        "t-_-d56CSWG-7BF15LLrOw"
      ],
      "last_client_version": "5.2.45120.0906(win)",
      "last_login_time": "2022-03-25T05:40:55.0000000\u002B00:00",
      "last_name": "Chill",
      "plan_united_type": "1",
      "pmi": 6589310093,
      "role_id": "0",
      "status": "active",
      "timezone": "Asia/Shanghai",
      "type": 1,
      "verified": 1,
      "display_name": "Jill Chill",
      "license_info_list": [
        {
          "license_type": "ZOOM_WORKPLACE_BUNDLE",
          "license_option": 16,
          "subscription_id": "SUBREF-xxxxxx-xxxxxx"
        }
      ]
    }
  ]
}